{
  "project_info": {
    "project_number": "992416897926",
    "firebase_url": "https://conti-7e274-default-rtdb.firebaseio.com",
    "project_id": "conti-7e274",
    "storage_bucket": "conti-7e274.appspot.com"
  },
  "client": [
    {
      "client_info": {
        "mobilesdk_app_id": "1:992416897926:android:7e30764bb6a77e88faaa07",
        "android_client_info": {
          "package_name": "com.example.conti"
        }
      },
      "oauth_client": [
        {
          "client_id": "992416897926-9tfuuvvlom1hamqbf85a580g9be6b65j.apps.googleusercontent.com",
          "client_type": 3
        }
      ],
      "api_key": [
        {
          "current_key": "AIzaSyB4ua4hK2uRSTjumOnY6vSN5MIKvCw4g3c"
        }
      ],
      "services": {
        "appinvite_service": {
          "other_platform_oauth_client": [
            {
              "client_id": "992416897926-9tfuuvvlom1hamqbf85a580g9be6b65j.apps.googleusercontent.com",
              "client_type": 3
            }
          ]
        }
      }
    }
  ],
  "configuration_version": "1"
}